tezt/_regressions/encoding/ithaca.nonce.out

./tezos-codec encode 012-PsiThaCa.nonce from '"0000000000000000000000000000000000000000000000000000000000000000"'
0000000000000000000000000000000000000000000000000000000000000000

./tezos-codec decode 012-PsiThaCa.nonce from 0000000000000000000000000000000000000000000000000000000000000000
"0000000000000000000000000000000000000000000000000000000000000000"
